02-Extract entity co-ocurrences with POS • networds
…
POS <- txt_wiki |> spacyr::spacy_parse()
#> successfully initialized (spaCy Version: 3.8.5, language model: en_core_web_sm)
# parsing the POS tagging in it

Extracting entities

The package {spacyr} has two functions useful in this section. Both
of them conflate compound nouns, like “New” and “York” into “New_York”.
The first one, extract only the entities

POS |>
  spacyr::entity_extract() |>
  dplyr::as_tibble() # use tibble to better visualize
#> # A tibble: 284 × 4
#>    doc_id sentence_id entity                      entity_type
#>    <chr>        <int> <chr>                       <chr>      
#>  1 text1            1 Brian_Thompson_-_Wikipedia  PERSON     
#>  2 text3            1 Brian_Thompson              PERSON     
#>  3 text3            1 American                    NORP       
#>  4 text3            1 UnitedHealthcare            ORG        
#>  5 text3            1 Midtown_Manhattan           GPE        
#>  6 text3            1 New_York_City               GPE        
#>  7 text3            2 the_New_York_Hilton_Midtown ORG        
#>  8 text3            3 Thompson                    PERSON     
#>  9 text3            3 UnitedHealth_Group          ORG        
#> 10 text3            3 UnitedHealthcare            ORG        
#> # ℹ 274 more rows

The second one, conflates the compound nouns and preserve the other
POS tags.

POS |>
  spacyr::entity_consolidate() |>
  dplyr::as_tibble() # use tibble to better visualize
#> # A tibble: 4,641 × 7
#>    doc_id sentence_id token_id token                     lemma pos   entity_type
#>    <chr>        <int>    <dbl> <chr>                     <chr> <chr> <chr>      
#>  1 text1            1        1 "Killing"                 "Kil… PROPN ""         
#>  2 text1            1        2 "of"                      "of"  ADP   ""         
#>  3 text1            1        3 "Brian_Thompson_-_Wikipe… "Bri… ENTI… "PERSON"   
#>  4 text2            1        1 " "                       " "   SPACE ""         
#>  5 text3            1        1 "Brian_Thompson"          "Bri… ENTI… "PERSON"   
#>  6 text3            1        2 ","                       ","   PUNCT ""         
#>  7 text3            1        3 "the"                     "the" DET   ""         
#>  8 text3            1        4 "50_-_year_-_old"         "50_… ENTI… "DATE"     
#>  9 text3            1        5 "CEO"                     "ceo" NOUN  ""         
#> 10 text3            1        6 "of"                      "of"  ADP   ""         
#> # ℹ 4,631 more rows

This functions is used inside {networds}. Lets use the package text
example. 

POS |> group_ppn()
#> # A tibble: 4,975 × 8
#> # Groups:   name [1,650]
#>    doc_id sentence_id token_id token       lemma       pos   entity     name    
#>    <chr>        <int>    <int> <chr>       <chr>       <chr> <chr>      <chr>   
#>  1 text1            1        1 "Killing"   "Killing"   PROPN ""         "Killin…
#>  2 text1            1        2 "of"        "of"        ADP   ""         "of Bri…
#>  3 text1            1        3 "Brian"     "Brian"     PROPN "PERSON_B" "of Bri…
#>  4 text1            1        4 "Thompson"  "Thompson"  PROPN "PERSON_I" "of Bri…
#>  5 text1            1        5 "-"         "-"         PUNCT "PERSON_I" "- Wiki…
#>  6 text1            1        6 "Wikipedia" "Wikipedia" PROPN "PERSON_I" "- Wiki…
#>  7 text2            1        1 " "         " "         SPACE ""         "  Bria…
#>  8 text3            1        1 "Brian"     "Brian"     PROPN "PERSON_B" "  Bria…
#>  9 text3            1        2 "Thompson"  "Thompson"  PROPN "PERSON_I" "  Bria…
#> 10 text3            1        3 ","         ","         PUNCT ""         ","     
#> # ℹ 4,965 more rows
…
The next step is to get the graph using
get_cooc_entities()

x <- txt_wiki[2:44] |>
  filter_by_query("Police") |>
  parsePOS()

x |> dplyr::as_tibble() # use tibble to better visualize
#> # A tibble: 26 × 4
#>    doc_id sentence_id entity                                   entity_type
#>    <chr>        <int> <chr>                                    <chr>      
#>  1 text1            1 Pennsylvania                             GPE        
#>  2 text1            1 New_Jersey                               GPE        
#>  3 text2            1 Ted_Kaczynski_'s                         PERSON     
#>  4 text2            1 Industrial_Society_and_Its_Future        ORG        
#>  5 text1            2 the_George_Washington_Bridge_Bus_Station ORG        
#>  6 text1            2 Upper_Manhattan                          LOC        
#>  7 text1            1 Central_Park                             LOC        
#>  8 text1            1 New_York_City                            GPE        
#>  9 text1            2 Mangione                                 ORG        
#> 10 text1            2 the_San_Francisco_Police_Department      ORG        
#> # ℹ 16 more rows

g <- get_cooc_entities(x)

g
#> $graphs
#> # A tibble: 88 × 3
#>    n1               n2                                 freq
#>    <chr>            <chr>                             <int>
#>  1 Ted_Kaczynski_'s Industrial_Society_and_Its_Future     2
#>  2 Altoona          Industrial_Society_and_Its_Future     1
#>  3 Altoona          McDonald                              1
#>  4 Altoona          Ted_Kaczynski_'s                      1
#>  5 Central_Park     Altoona                               1
#>  6 Central_Park     Industrial_Society_and_Its_Future     1
#>  7 Central_Park     Mangione                              1
#>  8 Central_Park     McDonald                              1
#>  9 Central_Park     New_York_City                         1
#> 10 Central_Park     San_Francisco                         1
#> # ℹ 78 more rows
…
graph$graphs |> interactive_graph()

To get the graph of entities and nouns:

graph_ppn <- filter_by_query(txt_wiki[2:44], "Police") |>
  parsePOS(only_entities = FALSE) |>
  dplyr::filter(entity_type != "CARDINAL") |> # to clean the graph
  dplyr::mutate(token = gsub("Police", "police", token)) |> # normalize the term "police"
  get_cooc()

graph_ppn
#> $graphs
#> # A tibble: 401 × 3
#>    n1     n2          freq
#>    <chr>  <chr>      <int>
#>  1 police Mangione       3
#>  2 3D     Manhattan      2
#>  3 3D     New_Jersey     2
#>  4 3D     claim          2
#>  5 3D     driver         2
#>  6 3D     hostel         2
#>  7 3D     license        2
#>  8 3D     name           2
#>  9 3D     one            2
#> 10 3D     police         2
#> # ℹ 391 more rows
#> 
#> $isolated_nodes
#> [1] node
#> <0 rows> (or 0-length row.names)
#> 
#> $nodes
#> # A tibble: 85 × 2
#>    node                               freq
#>    <chr>                             <int>
#>  1 police                               13
#>  2 Mangione                              6
#>  3 shooter                               4
#>  4 3D                                    2
#>  5 city                                  2
#>  6 Industrial_Society_and_Its_Future     2
#>  7 motive                                2
#>  8 New_Jersey                            2
#>  9 Pennsylvania                          2
#> 10 suspect                               2
#> # ℹ 75 more rows
…
