01 - Entity extraction with regex • networds
…
Extracting a graph

It is possible to extract a graph from the extracted entities. First,
happens the tokenization by sentence or paragraph. Than, the entities
are extracted using extract_entity(). Than a data frame
with the co-occurrence of words in sentences or paragraph is build.

vonNeumann_txt |> extract_graph()
#> Tokenizing by sentences
#> # A tibble: 27 × 2
#>    n1               n2                 
#>    <chr>            <chr>              
#>  1 John von Neumann NOY-               
#>  2 John von Neumann Hungarian          
#>  3 John von Neumann Neumann János Lajos
#>  4 John von Neumann December           
#>  5 John von Neumann February           
#>  6 John von Neumann Hungarian          
#>  7 John von Neumann American           
#>  8 NOY-             Hungarian          
#>  9 NOY-             Neumann János Lajos
#> 10 NOY-             December           
#> # ℹ 17 more rows

One of the parameters is sw that means “stopwords”. It
is possible to add a vector stopwords.

my_sw <- c(stopwords::stopwords(
  language = "en",
  source = "snowball", simplify = TRUE
), "lol")

vonNeumann_txt |> extract_graph(sw = my_sw)
#> Tokenizing by sentences
#> # A tibble: 27 × 2
#>    n1               n2                 
#>    <chr>            <chr>              
#>  1 John von Neumann NOY-               
#>  2 John von Neumann Hungarian          
#>  3 John von Neumann Neumann János Lajos
#>  4 John von Neumann December           
#>  5 John von Neumann February           
#>  6 John von Neumann Hungarian          
#>  7 John von Neumann American           
#>  8 NOY-             Hungarian          
#>  9 NOY-             Neumann János Lajos
#> 10 NOY-             December           
#> # ℹ 17 more rows
…
text <- page |>
  rvest::html_nodes("p") |>
  rvest::html_text()

# looking at the scraped text:
text[1:2] # seeing the head of the text
#> [1] "\n\n"                                                                                                                                                                                                                                                                                                                                                                                                                                                                                                                                                                                                                                                                                                                                                                                                                                                         
#> [2] "The GNU General Public Licenses (GNU GPL or simply GPL) are a series of widely used free software licenses, or copyleft licenses, that guarantee end users the freedoms to run, study, share, and modify the software.[7] The GPL was the first copyleft license for general use. It was originally written by Richard Stallman, the founder of the Free Software Foundation (FSF), for the GNU Project. The license grants the recipients of a computer program the rights of the Free Software Definition.[8] The licenses in the GPL series are all copyleft licenses, which means that any derivative work must be distributed under the same or equivalent license terms. It is more restrictive than the Lesser General Public License and even further distinct from the more widely-used permissive software licenses such as BSD, MIT, and Apache.\n"

And now extracting the graphs:

g <- text |> extract_graph(sw = my_sw)
#> Tokenizing by sentences
g
#> # A tibble: 3,239 × 2
#>    n1                              n2                           
#>    <chr>                           <chr>                        
#>  1 The GNU General Public Licenses GNU GPL                      
#>  2 The GNU General Public Licenses GPL                          
#>  3 The GNU General Public Licenses The GPL                      
#>  4 The GNU General Public Licenses Richard Stallman             
#>  5 The GNU General Public Licenses Free Software Foundation     
#>  6 The GNU General Public Licenses FSF                          
#>  7 The GNU General Public Licenses GNU Project                  
#>  8 The GNU General Public Licenses Free Software Definition     
#>  9 The GNU General Public Licenses GPL                          
#> 10 The GNU General Public Licenses Lesser General Public License
#> # ℹ 3,229 more rows
g_N <- g |> dplyr::count(n1, n2, sort = T)
g_N
#> # A tibble: 2,100 × 3
#>    n1           n2              n
#>    <chr>        <chr>       <int>
#>  1 GPLv3        GPLv2          24
#>  2 Artifex      Hancom         19
#>  3 Ghostscript  Hancom         19
#>  4 Linux        GPL            16
#>  5 GPL          FSF            14
#>  6 GPL-licensed GPL            14
#>  7 GPL          GPLv3          13
#>  8 Artifex      Ghostscript    12
#>  9 However      GPL            12
#> 10 FSF          GPL            11
#> # ℹ 2,090 more rows
…
Using State of the Union data

Using the package SOTU, that contains the
State of the
Union Addresses. It :

"is an annual message delivered by the president of the United States to a joint session of the United States Congress near the beginning of most calendar years on the current condition of the nation. The speech generally includes reports on the nation's budget, economy, news, agenda, progress, achievements and the president's priorities and legislative proposals." 

library(sotu) #  text examples of US presidents speeches

# checking the DF with the speeches
tibble::as_tibble(sotu_meta)
#> # A tibble: 240 × 6
#>        X president          year years_active party       sotu_type
#>    <int> <chr>             <int> <chr>        <chr>       <chr>    
#>  1     1 George Washington  1790 1789-1793    Nonpartisan speech   
#>  2     2 George Washington  1790 1789-1793    Nonpartisan speech   
#>  3     3 George Washington  1791 1789-1793    Nonpartisan speech   
#>  4     4 George Washington  1792 1789-1793    Nonpartisan speech   
#>  5     5 George Washington  1793 1793-1797    Nonpartisan speech   
#>  6     6 George Washington  1794 1793-1797    Nonpartisan speech   
#>  7     7 George Washington  1795 1793-1797    Nonpartisan speech   
#>  8     8 George Washington  1796 1793-1797    Nonpartisan speech   
#>  9     9 John Adams         1797 1797-1801    Federalist  speech   
#> 10    10 John Adams         1798 1797-1801    Federalist  speech   
#> # ℹ 230 more rows
…
sotu_g_Ob <- text_sotu |>
  paste(collapse = " ") |>
  extract_graph(sw = my_sw)
#> Tokenizing by sentences

count_graph_ob <- dplyr::count(sotu_g_Ob,
  n1, n2,
  sort = T
)

count_graph_ob
#> # A tibble: 5,307 × 3
#>    n1        n2            n
#>    <chr>     <chr>     <int>
#>  1 American  America     219
#>  2 Now       American    193
#>  3 America   American    181
#>  4 American  Americans   176
#>  5 Americans American    174
#>  6 Congress  American    146
#>  7 American  Now         132
#>  8 Now       America     131
#>  9 Americans America     116
#> 10 Now       Americans   110
#> # ℹ 5,297 more rows
…
